<svg xmlns="http://www.w3.org/2000/svg" width="15" height="14" viewBox="0 0 15 14">
  <defs>
    <style>
      .cls-1 {
        font-size: 16px;
        fill: #8B4CA1;
        text-anchor: middle;
        font-family: FontAwesome;
      }
    </style>
  </defs>
  <text id="in-ico" class="cls-1" x="8" y="13.001"><tspan x="8"></tspan></text>
</svg>
