<svg xmlns="http://www.w3.org/2000/svg" width="10" height="17" viewBox="0 0 10 17">
  <defs>
    <style>
      .cls-1 {
        font-size: 16px;
        fill: #fff;
        text-anchor: middle;
        font-family: FontAwesome;
      }
    </style>
  </defs>
  <text id="ok-ico" class="cls-1" x="5" y="14.001"><tspan x="5"></tspan></text>
</svg>
